25

5
4
3
2
1
-2
-3
-2

124

30
-1
124

14
1

5
4
3
2
1
-5
-4
-3
-2
-1

5
4
3
2
1
-5
-4
-3
-2
-1
1
2
3
4
5

1
-1
2
-1
3
-1
4

7
7
7
7
-3

124
-1
124
-1

10
10
10
20

4
4
4
7
4
9
4
-4
-5

12
12
-2
14
-2
15
-1
8
-1

4
6
7
-3
9
-3
9
-3
-2

40
-1
23
26
27
39
-2

32
32
32

9
6
5
4
-4

33
20
-1
10

124
-1
124
-1
124
-1
40
30

20
20
-2
30

1
2
3
4
5
-4
-4

2
2
2
-1
-1
4
-1
-1
124

4
3
2
1
4
3
2
1

3
3
3
3
3
-2
-3
-1

8
8
7
7
6
6
-1
-5

1
1
1
1
1
1
1
1
1
1
1
1
1
1
1
1
1
-10
-3
-4
-7
